package com.myspace.keralty_diabetes;
import com.myspace.keralty_diabetes.Paciente;
import java.util.ArrayList;
import java.util.List;

rule "Establecer datos iniciales de un Paciente"
    dialect "mvel"
    ruleflow-group "initialize-rules"
    no-loop true
    when
        pacientes : Paciente( )
    then
        System.out.println("Rule fired : [" + drools.getRule().getName()+"]");
        pacientes.setCedula("123456789");
        pacientes.setNombre("Magda");
        String pacientes.codCardiovascular= new String[] {"I210", "I211", "I212", "I213", "I214", "I219", "I220", "I221", "I228", "I229", "I230", "I231", "I232", "I233", "I234", "I235", "I238", "I240", "I250", "I251", "I252", "I702", "I708", "I709", "I739"};
        //pacientes.setEnfermedadesCardiovasculares(false);
        //pacientes.setFindrisk(0);
        String pacientes.codComorbilidades= new String[] {"I630", "I631", "I632", "I633", "I634", "I635", "I638", "I639", "I653", "I658", "I659", "I660", "I661", "I662", "I664", "I668", "I669", "I672", "I693", "I698"};
        //pacientes.setTieneComorbilidades(false);
        String pacientes.fallaCardiaca= new String[] {"I500", "I509", "I518", "Y840"};
        //pacientes.setTieneFallaCardiaca(false);
        /*paciente.setComorbilidades("");
        paciente.setPerimetroAbdominal(0);
        paciente.setRac(0.0);
        paciente.setGlicemia(0.0);
        paciente.setHba1c(0.0);
        paciente.setContraindicacionesMetformina(false);
        paciente.setContraindicacionesEcglt2(false);
        paciente.setTratamientoConMedicamento(false);
        paciente.setContraindicacionesDpp4(false);
        paciente.setEdad(0);
        paciente.setGenero("");
        paciente.setImc(0.0);
        paciente.setGlucosaEnSuero(false);
        //paciente.setHerenciaDiabetes(false);
        //paciente.setCodCardiovascular("");
        //String paciente.codCardiovascular= new String[{}];
       //codCV=paciente.getCodCardiovascular[1];
        //System.out.println("codigo: "+ codCV);
        paciente.setHipertensionSistolico(0.0);
        paciente.setHipertensionDiastolico(0.0);
        paciente.setMedicamentosHipertension(false);
        paciente.setHdl(0.0);
        paciente.setTrigliceridos(0.0);
        paciente.setOvarioPoliquistico("E282");
        paciente.setSedentarismo(false);
        paciente.setAntecedentesDiabetesGestacional(false);
        paciente.setHijosMasCuatroKgAlNacer(false);
        paciente.setAcantosis("L83X");
        paciente.setActividadFisica(false);
        paciente.setAlimentacionSaludable(false);
        paciente.setHistGlucosaAlta(false);
        paciente.setHerenciaDiabetesGradoUno(false);
        paciente.setHerenciaDiabetesGradoDos(false);
        paciente.setPrimeraPrueba(false);
        paciente.setCodHta("");
        paciente.setCodEcv("");
        paciente.setPreprandial(0.0);
        paciente.setPostprandial(0.0);*/
        pacientes.setMensaje("el paciente debe hacerse tamizaje en 5 años");
        //System.out.println("Estado enfermedad cardiovascular al inicializar: " + paciente.getEnfermedadesCardiovasculares());
        //System.out.println("Tiene comorbidades al inicializar  en: " + paciente.getTieneComorbilidades());
        //System.out.println("Tiene falla cardiaca al inicializar en: " + paciente.getTieneFallaCardiaca());
    end

